…
# parse and clean abortions
abortions <- read_nys_xml_table(abort) %>%
  transmute(
    county = County,
    abortions = as.integer(str_replace(Var.2, ",", ""))
  ) %>%
  # essex/hamilton is already aggregated here, but repeated as hamilton/essex
  filter(county != "Hamilton/Essex")

# let's print one tibble to make sure it looks right
live_births

## # A tibble: 61 x 2
##    county      live_births
##    <chr>             <int>
##  1 Bronx             21130
##  2 Kings             41514
##  3 New York          17775
##  4 Queens            30335
##  5 Richmond           5286
##  6 Albany             3161
##  7 Allegany            496
##  8 Broome             1972
##  9 Cattaraugus         880
## 10 Cayuga              716
## # ... with 51 more rows
…
    fertility_rate = (live_births / pop_wra) * 1000,
    abortion_rate = (abortions / pop_wra) * 1000,
    fetal_loss_rate = 17.9, # national rate per cdc
    preg_tot = as.integer((pop_wra / 1000) *
      (
        (fertility_rate * 0.75)
        + (abortion_rate * 0.167)
          + (fetal_loss_rate * 0.25)
      ))
  ) %>%
  # rename to join with census data later
  mutate(county = recode(county, "St Lawrence" = "St. Lawrence"))
preg_rate

## # A tibble: 61 x 8
##    county      pop_wra live_births abortions fertility_rate abortion_rate
##    <chr>         <int>       <int>     <int>          <dbl>         <dbl>
##  1 Bronx        326993       21130     14992           64.6         45.8 
##  2 Kings        606681       41514     18026           68.4         29.7 
##  3 New York     418799       17775     10294           42.4         24.6 
##  4 Queens       496216       30335     13681           61.1         27.6 
##  5 Richmond      92426        5286      1634           57.2         17.7 
##  6 Albany        66574        3161      1139           47.5         17.1 
##  7 Allegany       9001         496        36           55.1          4.00
##  8 Broome        37951        1972       690           52.0         18.2 
##  9 Cattaraugus   13631         880        79           64.6          5.80
## 10 Cayuga        13223         716       139           54.1         10.5 
## # ... with 51 more rows, and 2 more variables: fetal_loss_rate <dbl>,
## #   preg_tot <int>
…
