…
  ~ get_acs(
      geography = "county",
      variables = my_vars,
      state = "CA",
      county = my_counties,
      year = .x,
      survey = "acs1",
      geometry = FALSE
      ),
  .id = "year"  # when combining results, add id var (name of list item)
  ) %>%
  select(-moe) %>%  # shhhh
  arrange(variable, NAME) %>% 
  print()
## # A tibble: 36 x 5
##    year  GEOID NAME                             variable      estimate
##    <chr> <chr> <chr>                            <chr>            <dbl>
##  1 2012  06001 Alameda County, California       median_income    70500
##  2 2017  06001 Alameda County, California       median_income    96296
##  3 2012  06013 Contra Costa County, California  median_income    74177
##  4 2017  06013 Contra Costa County, California  median_income    95339
##  5 2012  06041 Marin County, California         median_income    90535
##  6 2017  06041 Marin County, California         median_income   113908
##  7 2012  06055 Napa County, California          median_income    68553
##  8 2017  06055 Napa County, California          median_income    86562
##  9 2012  06075 San Francisco County, California median_income    73012
## 10 2017  06075 San Francisco County, California median_income   110816
## # ... with 26 more rows
…
