How Staten Island voted in 2016 (and what it might mean for 2018)
…
pres_2016_tidy

## # A tibble: 21,384 x 6
##    elect_dist  year type    office candidate tally
##    <chr>      <int> <chr>   <chr>  <chr>     <int>
##  1 23001       2016 general pres   clinton     171
##  2 23001       2016 general pres   trump       572
##  3 23001       2016 general pres   stein         7
##  4 23001       2016 general pres   johnson      21
##  5 23002       2016 general pres   clinton     156
##  6 23002       2016 general pres   trump       573
##  7 23002       2016 general pres   stein        15
##  8 23002       2016 general pres   johnson      13
##  9 23003       2016 general pres   clinton     167
## 10 23003       2016 general pres   trump       559
## # ... with 21,374 more rows
…
# filter 2016 pres results to only ny116
ny11_pres_2016_tidy <- pres_2016_tidy %>%
  filter(elect_dist %in% ny11_eds)
ny11_pres_2016_tidy

## # A tibble: 1,716 x 6
##    elect_dist  year type    office candidate tally
##    <chr>      <int> <chr>   <chr>  <chr>     <int>
##  1 41080       2016 general pres   clinton      34
##  2 41080       2016 general pres   trump        33
##  3 41080       2016 general pres   stein         0
##  4 41080       2016 general pres   johnson       2
##  5 45007       2016 general pres   clinton      16
##  6 45007       2016 general pres   trump        20
##  7 45007       2016 general pres   stein         0
##  8 45007       2016 general pres   johnson       0
##  9 45008       2016 general pres   clinton     123
## 10 45008       2016 general pres   trump       263
## # ... with 1,706 more rows
…
