…
# parse and clean abortions
abortions <- read_nys_xml_table(abort) %>%
  transmute(
    county = County,
    abortions = as.integer(str_replace(Var.2, ",", ""))
    ) %>%
  # essex/hamilton is already aggregated here, but repeated as hamilton/essex
  filter(county != "Hamilton/Essex")

# let's print one of those tibbles to make sure it looks right
live_births

## # A tibble: 61 x 2
##    county      live_births
##    <chr>             <int>
##  1 Bronx             21130
##  2 Kings             41514
##  3 New York          17775
##  4 Queens            30335
##  5 Richmond           5286
##  6 Albany             3161
##  7 Allegany            496
##  8 Broome             1972
##  9 Cattaraugus         880
## 10 Cayuga              716
## # ... with 51 more rows
…
